Análise biocontrole de Hemileia vastatrix
…
Análise da área abaixo da curva de progresso da doença (AACPD)

A AACPD foi utilizada para quantificar e comparar o progresso da doença nas plantas ao longo do tempo. A AACPD é calculada por meio dos dados de severidade em diferentes tempos então, para esta análise, foram usados todos os tempos de avaliação (30, 45, 60 e 75 dai). Para a análise de AACPD, foi utilizado o pacote epifitter.

Preparação dos dados: para a realização desta análise, para evitar erros, foi necessário filtrar as células com dados ausentes e também o tempo zero do data frame. Os dados foram agrupados pela variável trat e bloco e, por meio da função summarise, a variável AACPD foi criada e a área abaixo da curva de progresso da doença (AUPDC) calculada com base nos valores das variáveis tempo (tempo_dai) e severidade (sev).

c3 <- controle |> 
  filter(sev != "NA") |> 
  filter(tempo_dai != 0) |> 
  group_by(trat, bloco) |> 
  summarise(AACPD = AUDPC(tempo_dai, sev))
c3

# A tibble: 57 × 3
# Groups:   trat [19]
   trat  bloco AACPD
   <chr> <dbl> <dbl>
 1 290       1 152. 
 2 290       2 136. 
 3 290       3  51.4
 4 297       1 471  
 5 297       2 119. 
 6 297       3 164. 
 7 58        1 148. 
 8 58        2 105. 
 9 58        3  31.6
10 64        1 141. 
# ℹ 47 more rows
…
Correlação entre as variáveis severidade e AADPC

Preparo dos dados: para realizar a análise de correlação entre essas duas variáveis, primeiramente foi necessário igualar o conjunto de dados de severidade para a mesma quantidade de linhas do conjunto de AACPD. Para esta análise, os dados de severidade foram atríbuidos ao conjunto corsev.

corsev <- controle |> 
  filter(sev != "NA") |> 
  group_by(trat, bloco) |> 
  summarise(sev_mean = mean(sev))

`summarise()` has grouped output by 'trat'. You can override using the
`.groups` argument.

corsev

# A tibble: 57 × 3
# Groups:   trat [19]
   trat  bloco sev_mean
   <chr> <dbl>    <dbl>
 1 290       1    2.69 
 2 290       2    1.85 
 3 290       3    0.914
 4 297       1    5.45 
 5 297       2    1.23 
 6 297       3    2.07 
 7 58        1    3.50 
 8 58        2    1.16 
 9 58        3    1.21 
10 64        1    2.26 
# ℹ 47 more rows
…
