Biocontrole da Ferrugem do Cafeeiro - Análise de dados do experimento de biocontrole da ferrugem do café
…
Importação dos dados: como o data frame contendo os dados de severidade estão localizados em uma uma planilha do Google Sheets, para realizar a importação dos dados necessitou-se utilizar a função gsheet2tbl do pacote googlesheets4. O data frame foi atribuído ao objeto denominado controle.

controle <- gsheet2tbl("https://docs.google.com/spreadsheets/d/1bw5wWl5dZHis32FU8C60o1xT4HbXqeC9/edit#gid=2004591437")

controle

# A tibble: 1,425 × 4
   trat  tempo_dai bloco   sev
   <chr>     <dbl> <dbl> <dbl>
 1 E585         30     1  0.23
 2 E585         30     1  0   
 3 E585         30     1  0.17
 4 E585         30     1  0.2 
 5 E585         30     1  0   
 6 E585         30     2  0.08
 7 E585         30     2  0.08
 8 E585         30     2  0   
 9 E585         30     2  0   
10 E585         30     2  0.73
# ℹ 1,415 more rows
…
Análise da Área Abaixo da Curva de Progresso da Doença (AACPD)

A AACPD foi utilizada para quantificar e comparar o progresso da doença nas plantas ao longo do tempo. Como a AACPD é calculada por meio dos dados de severidade obtidos em diferentes tempos, para esta análise foram usados todos os tempos de avaliação (30, 45, 60 e 75 dai). Para a realização da análise de AACPD, foi utilizado o pacote epifitter.

Preparação dos dados: Na realização desta análise, para evitar erros, foi necessário filtrar as células com dados ausentes e também o tempo zero do data frame. Os dados foram agrupados pelas variáveis trat e bloco e, por meio da função summarise, a variável AACPD foi criada e a área abaixo da curva de progresso da doença (AUPDC) calculada com base nos valores das variáveis tempo (tempo_dai) e severidade (sev). Após a criação da nova variável, o novo quadro de data frame foi visualizado utilizando o objeto c3. A função summary fornece um resumo estatístico da variável AACPD presente em c3.

c3 <- controle |> 
  filter(sev != "NA") |> 
  filter(tempo_dai != 0) |> 
  group_by(trat, bloco) |> 
  summarise(AACPD = AUDPC(tempo_dai, sev))
c3

# A tibble: 57 × 3
# Groups:   trat [19]
   trat  bloco AACPD
   <chr> <dbl> <dbl>
 1 290       1 152. 
 2 290       2 136. 
 3 290       3  51.4
 4 297       1 471  
 5 297       2 119. 
 6 297       3 164. 
 7 58        1 148. 
 8 58        2 105. 
 9 58        3  31.6
10 64        1 141. 
# ℹ 47 more rows
…
O teste de Scott-Knott utilizando a variável AACPD, diferente da variável severidade, agrupou os tratamentos em apenas dois grupos estatisticamente diferentes - “a” e “b”. Considerando a AACPD, os tratamentos do grupo b apresentam as menores médias, sendo então considerados os melhores tratamentos.

Embora o teste de Scott-Knott tenha conseguindo separar os tratamentos em 3 grupos estatisticamente distintos para a variável resposta severidade e 2 grupos para a AACPD, no quadro de ANOVA fornecido pelo teste SK, é possível ver, na análise de ambas as variáveis, que o valor do CV está muito alto. Como o CV indica a precisão do experimento, quanto maior o seu valor, maior é a heterogeneidade e dispersão dos dados em relação à média, demostrando que existe uma baixa confiabilidade na estimativa da média.

Incidência de doença

Preparo pré-análise

Importação de dados: os dados de incidência foram designados ao objeto incid.

incid <- gsheet2tbl("https://docs.google.com/spreadsheets/d/1bw5wWl5dZHis32FU8C60o1xT4HbXqeC9/edit#gid=1007691733")

incid

# A tibble: 285 × 7
   trat  bloco planta   alt n_folhas folhas_ferrugem   inc
   <chr> <dbl>  <dbl> <dbl>    <dbl>           <dbl> <dbl>
 1 E585      1      1  40         27              12  44.4
 2 E585      1      2  32.9       46              19  41.3
 3 E585      1      3  39         15               9  60  
 4 E585      1      4  38.5       52              23  44.2
 5 E585      1      5  42         29              10  34.5
 6 E585      2      6  33         34              26  76.5
 7 E585      2      7  33         31              24  77.4
 8 E585      2      8  41         19              15  78.9
 9 E585      2      9  24.9       20              13  65  
10 E585      2     10  31         30              20  66.7
# ℹ 275 more rows
…
Altura de planta

Preparo pré-análise

Importação de dados: os dados foram atribuídos ao objeto altura.

altura <- gsheet2tbl("https://docs.google.com/spreadsheets/d/1bw5wWl5dZHis32FU8C60o1xT4HbXqeC9/edit#gid=1007691733")

altura

# A tibble: 285 × 7
   trat  bloco planta   alt n_folhas folhas_ferrugem   inc
   <chr> <dbl>  <dbl> <dbl>    <dbl>           <dbl> <dbl>
 1 E585      1      1  40         27              12  44.4
 2 E585      1      2  32.9       46              19  41.3
 3 E585      1      3  39         15               9  60  
 4 E585      1      4  38.5       52              23  44.2
 5 E585      1      5  42         29              10  34.5
 6 E585      2      6  33         34              26  76.5
 7 E585      2      7  33         31              24  77.4
 8 E585      2      8  41         19              15  78.9
 9 E585      2      9  24.9       20              13  65  
10 E585      2     10  31         30              20  66.7
# ℹ 275 more rows
…
Hipótese nula (H0): não há correlação significativa entre as duas variáveis analisadas.

Hipótese alternativa (Ha): há uma correlação significativa entre as duas variáveis analisadas.

Correlação entre severidade e AADPC

Preparo dos dados: para realizar a análise de correlação entre essas duas variáveis, primeiramente foi necessário igualar o conjunto de dados de severidade para a mesma quantidade de linhas do conjunto de AACPD. Para esta análise, os dados de severidade foram atríbuidos ao conjunto corsev.

corsev <- controle |> 
  filter(sev != "NA") |> 
  group_by(trat, bloco) |> 
  summarise(sev_mean = mean(sev))
corsev

# A tibble: 57 × 3
# Groups:   trat [19]
   trat  bloco sev_mean
   <chr> <dbl>    <dbl>
 1 290       1    2.69 
 2 290       2    1.85 
 3 290       3    0.914
 4 297       1    5.45 
 5 297       2    1.23 
 6 297       3    2.07 
 7 58        1    3.50 
 8 58        2    1.16 
 9 58        3    1.21 
10 64        1    2.26 
# ℹ 47 more rows
…
